module grugmark

go 1.21.5

require (
	atomicgo.dev/cursor v0.2.0 // indirect
	atomicgo.dev/keyboard v0.2.9 // indirect
	atomicgo.dev/schedule v0.1.0 // indirect
	github.com/containerd/console v1.0.3 // indirect
	github.com/gookit/color v1.5.4 // indirect
	github.com/lithammer/fuzzysearch v1.1.8 // indirect
	github.com/mattn/go-runewidth v0.0.15 // indirect
	github.com/pterm/pterm v0.12.74 // indirect
	github.com/rivo/uniseg v0.4.4 // indirect
	github.com/xo/terminfo v0.0.0-20220910002029-abceb7e1c41e // indirect
	golang.design/x/clipboard v0.7.0 // indirect
	golang.org/x/exp v0.0.0-20220909182711-5c715a9e8561 // indirect
	golang.org/x/image v0.6.0 // indirect
	golang.org/x/mobile v0.0.0-20230301163155-e0f57694e12c // indirect
	golang.org/x/sys v0.15.0 // indirect
	golang.org/x/term v0.15.0 // indirect
	golang.org/x/text v0.14.0 // indirect
)
